…
``` r
# install.packages("remotes")
remotes::install_github("ramiromagno/fiddlers")
```

## Usage

This package provides two data sets: `fiddlers` and `quadrats`.

``` r
library(fiddlers)

fiddlers
#> # A tibble: 7,326 × 12
#>    species     region season quadrat sex   stage    cw    cl    fw hyper…¹   lcl
#>    <chr>       <chr>  <chr>  <chr>   <fct> <ord> <dbl> <dbl> <dbl> <fct>   <dbl>
#>  1 Afruca far… Ria F… summer q1      fema… juve…    27    21    15 none       16
#>  2 Afruca far… Ria F… summer q1      fema… juve…    27    21    16 none       13
#>  3 Afruca far… Ria F… summer q1      fema… juve…    19    15    10 none        9
#>  4 Afruca far… Ria F… summer q1      fema… juve…    26    21    19 none       16
#>  5 Afruca far… Ria F… summer q1      fema… juve…    24    19    14 none        8
#>  6 Afruca far… Ria F… summer q1      fema… juve…    22    17    15 none        7
#>  7 Afruca far… Ria F… summer q1      fema… juve…    25    19    15 none       14
#>  8 Afruca far… Ria F… summer q1      fema… juve…    18    14     8 none       13
#>  9 Afruca far… Ria F… summer q1      fema… juve…    24    19    11 none       10
#> 10 Afruca far… Ria F… summer q1      fema… juve…    24    19    19 none       12
#> # … with 7,316 more rows, 1 more variable: rcl <dbl>, and abbreviated variable
#> #   name ¹​hypertrophy
#> # ℹ Use `print(n = ...)` to see more rows, and `colnames()` to see all variable names
```
…
